{
  "project_info": {
    "project_number": "393595658709",
    "firebase_url": "https://eedc-e65c8.firebaseio.com",
    "project_id": "eedc-e65c8",
    "storage_bucket": "eedc-e65c8.appspot.com"
  },
  "client": [
    {
      "client_info": {
        "mobilesdk_app_id": "1:393595658709:android:31f926d67c93da0dbfdd5c",
        "android_client_info": {
          "package_name": "com.tunde.eedc"
        }
      },
      "oauth_client": [
        {
          "client_id": "393595658709-pg728euu3ountq3r260kcmlp0duo3trl.apps.googleusercontent.com",
          "client_type": 1,
          "android_info": {
            "package_name": "com.tunde.eedc",
            "certificate_hash": "1d2ed57fa3a1b706a2c896e56757c84635cd9699"
          }
        },
        {
          "client_id": "393595658709-6eocvi15ee4ocha1qnjh28qndec3jbij.apps.googleusercontent.com",
          "client_type": 3
        }
      ],
      "api_key": [
        {
          "current_key": "AIzaSyAQUjBOypN2jdh9mceD3SLBSpN6j56e-cs"
        }
      ],
      "services": {
        "appinvite_service": {
          "other_platform_oauth_client": [
            {
              "client_id": "393595658709-6eocvi15ee4ocha1qnjh28qndec3jbij.apps.googleusercontent.com",
              "client_type": 3
            }
          ]
        }
      }
    }
  ],
  "configuration_version": "1"
}